id,name,model_id:id,group_id:id,perm_read,perm_write,perm_create,perm_unlink
access_wizard_report_unidad_producto,accces_wizard_report_unidad_producto,model_wizard_report_unidad_producto,base.group_user,1,1,1,1
access_report_unidad_producto,report_unidad_producto,model_report_unidad_producto,base.group_user,1,1,1,1
